Speed of Light Data/10 Mhz - 176 - Ch1 - F0009CH1.csv

,,,Time,Volts
Record Length,2.50E+03,,-0.000000246,-0.0122
Sample Interval,2.00E-10,,-0.0000002458,-0.0122
Trigger Point,1.23E+03,,-0.0000002456,-0.0122
,,,-0.0000002454,-0.0122
,,,-0.0000002452,-0.0122
,,,-0.000000245,-0.0122
Source,CH1,,-0.0000002448,-0.0122
Vertical Units,V,,-0.0000002446,-0.0122
Vertical Scale,5.00E-03,,-0.0000002444,-0.0124
Vertical Offset,0.00E+00,,-0.0000002442,-0.0124
Horizontal Units,s,,-0.000000244,-0.0124
Horizontal Scale,5.00E-08,,-0.0000002438,-0.0124
Pt Fmt,Y,,-0.0000002436,-0.0124
Yzero,0.00E+00,,-0.0000002434,-0.0124
Probe Atten,1.00E+00,,-0.0000002432,-0.0124
Model Number,TDS2002C,,-0.000000243,-0.0124
Serial Number,C013636,,-0.0000002428,-0.0124
Firmware Version,FV:v24.15,,-0.0000002426,-0.0124
,,,-0.0000002424,-0.0122
,,,-0.0000002422,-0.0122
,,,-0.000000242,-0.0122
,,,-0.0000002418,-0.0122
,,,-0.0000002416,-0.0122
,,,-0.0000002414,-0.012
,,,-0.0000002412,-0.012
,,,-0.000000241,-0.012
,,,-0.0000002408,-0.012
,,,-0.0000002406,-0.0118
,,,-0.0000002404,-0.0118
,,,-0.0000002402,-0.0118
,,,-0.00000024,-0.0116
,,,-0.0000002398,-0.0116
,,,-0.0000002396,-0.0116
,,,-0.0000002394,-0.0114
,,,-0.0000002392,-0.0114
,,,-0.000000239,-0.0114
,,,-0.0000002388,-0.0112
,,,-0.0000002386,-0.0112
,,,-0.0000002384,-0.0112
,,,-0.0000002382,-0.011
,,,-0.000000238,-0.011
,,,-0.0000002378,-0.011
,,,-0.0000002376,-0.0108
,,,-0.0000002374,-0.0108
,,,-0.0000002372,-0.0108
,,,-0.000000237,-0.0108
,,,-0.0000002368,-0.0106
,,,-0.0000002366,-0.0106
,,,-0.0000002364,-0.0106
,,,-0.0000002362,-0.0106
,,,-0.000000236,-0.0104
,,,-0.0000002358,-0.0104
,,,-0.0000002356,-0.0104
,,,-0.0000002354,-0.0104
,,,-0.0000002352,-0.0104
,,,-0.000000235,-0.0102
,,,-0.0000002348,-0.0102
,,,-0.0000002346,-0.0102
,,,-0.0000002344,-0.01
,,,-0.0000002342,-0.01
,,,-0.000000234,-0.01
,,,-0.0000002338,-0.0098
,,,-0.0000002336,-0.0098
,,,-0.0000002334,-0.0098
,,,-0.0000002332,-0.0096
,,,-0.000000233,-0.0096
,,,-0.0000002328,-0.0094
,,,-0.0000002326,-0.0092
,,,-0.0000002324,-0.0092
,,,-0.0000002322,-0.009
,,,-0.000000232,-0.009
,,,-0.0000002318,-0.0088
,,,-0.0000002316,-0.0086
,,,-0.0000002314,-0.0086
,,,-0.0000002312,-0.0084
,,,-0.000000231,-0.0084
,,,-0.0000002308,-0.0082
,,,-0.0000002306,-0.008
,,,-0.0000002304,-0.008
,,,-0.0000002302,-0.0078
,,,-0.00000023,-0.0076
,,,-0.0000002298,-0.0076
,,,-0.0000002296,-0.0074
,,,-0.0000002294,-0.0072
,,,-0.0000002292,-0.007
,,,-0.000000229,-0.007
,,,-0.0000002288,-0.0068
,,,-0.0000002286,-0.0066
,,,-0.0000002284,-0.0064
,,,-0.0000002282,-0.0064
,,,-0.000000228,-0.0062
,,,-0.0000002278,-0.006
,,,-0.0000002276,-0.006
,,,-0.0000002274,-0.0058
,,,-0.0000002272,-0.0056
,,,-0.000000227,-0.0056
,,,-0.0000002268,-0.0054
,,,-0.0000002266,-0.0054
,,,-0.0000002264,-0.0052
,,,-0.0000002262,-0.0052
,,,-0.000000226,-0.005
,,,-0.0000002258,-0.005
,,,-0.0000002256,-0.0048
,,,-0.0000002254,-0.0048
,,,-0.0000002252,-0.0046
,,,-0.000000225,-0.0046
,,,-0.0000002248,-0.0044
,,,-0.0000002246,-0.0042
,,,-0.0000002244,-0.0042
,,,-0.0000002242,-0.004
,,,-0.000000224,-0.004
,,,-0.0000002238,-0.0038
,,,-0.0000002236,-0.0038
,,,-0.0000002234,-0.0036
,,,-0.0000002232,-0.0034
,,,-0.000000223,-0.0034
,,,-0.0000002228,-0.0032
,,,-0.0000002226,-0.003
,,,-0.0000002224,-0.003
,,,-0.0000002222,-0.0028
,,,-0.000000222,-0.0026
,,,-0.0000002218,-0.0024
,,,-0.0000002216,-0.0024
,,,-0.0000002214,-0.0022
,,,-0.0000002212,-0.002
,,,-0.000000221,-0.0018
,,,-0.0000002208,-0.0016
,,,-0.0000002206,-0.0014
,,,-0.0000002204,-0.0012
,,,-0.0000002202,-0.001
,,,-0.00000022,-0.0008
,,,-0.0000002198,-0.0006
,,,-0.0000002196,-0.0006
,,,-0.0000002194,-0.0004
,,,-0.0000002192,-0.0002
,,,-0.000000219,0
,,,-0.0000002188,0.0002
,,,-0.0000002186,0.0004
,,,-0.0000002184,0.0006
,,,-0.0000002182,0.0008
,,,-0.000000218,0.001
,,,-0.0000002178,0.0012
,,,-0.0000002176,0.0014
,,,-0.0000002174,0.0016
,,,-0.0000002172,0.0018
,,,-0.000000217,0.002
,,,-0.0000002168,0.0022
,,,-0.0000002166,0.0022
,,,-0.0000002164,0.0024
,,,-0.0000002162,0.0026
,,,-0.000000216,0.0028
,,,-0.0000002158,0.0028
,,,-0.0000002156,0.003
,,,-0.0000002154,0.0032
,,,-0.0000002152,0.0032
,,,-0.000000215,0.0034
,,,-0.0000002148,0.0034
,,,-0.0000002146,0.0036
,,,-0.0000002144,0.0036
,,,-0.0000002142,0.0038
,,,-0.000000214,0.0038
,,,-0.0000002138,0.004
,,,-0.0000002136,0.0042
,,,-0.0000002134,0.0042
,,,-0.0000002132,0.0044
,,,-0.000000213,0.0044
,,,-0.0000002128,0.0046
,,,-0.0000002126,0.0046
,,,-0.0000002124,0.0048
,,,-0.0000002122,0.005
,,,-0.000000212,0.005
,,,-0.0000002118,0.0052
,,,-0.0000002116,0.0052
,,,-0.0000002114,0.0054
,,,-0.0000002112,0.0056
,,,-0.000000211,0.0056
,,,-0.0000002108,0.0058
,,,-0.0000002106,0.006
,,,-0.0000002104,0.0062
,,,-0.0000002102,0.0062
,,,-0.00000021,0.0064
,,,-0.0000002098,0.0066
,,,-0.0000002096,0.0066
,,,-0.0000002094,0.0068
,,,-0.0000002092,0.007
,,,-0.000000209,0.0072
,,,-0.0000002088,0.0072
,,,-0.0000002086,0.0074
,,,-0.0000002084,0.0076
,,,-0.0000002082,0.0076
,,,-0.000000208,0.0078
,,,-0.0000002078,0.008
,,,-0.0000002076,0.008
,,,-0.0000002074,0.0082
,,,-0.0000002072,0.0084
,,,-0.000000207,0.0086
,,,-0.0000002068,0.0086
,,,-0.0000002066,0.0088
,,,-0.0000002064,0.0088
,,,-0.0000002062,0.009
,,,-0.000000206,0.0092
,,,-0.0000002058,0.0092
,,,-0.0000002056,0.0094
,,,-0.0000002054,0.0094
,,,-0.0000002052,0.0096
,,,-0.000000205,0.0096
,,,-0.0000002048,0.0098
,,,-0.0000002046,0.0098
,,,-0.0000002044,0.0098
,,,-0.0000002042,0.01
,,,-0.000000204,0.01
,,,-0.0000002038,0.0102
,,,-0.0000002036,0.0102
,,,-0.0000002034,0.0104
,,,-0.0000002032,0.0104
,,,-0.000000203,0.0104
,,,-0.0000002028,0.0106
,,,-0.0000002026,0.0106
,,,-0.0000002024,0.0108
,,,-0.0000002022,0.0108
,,,-0.000000202,0.0108
,,,-0.0000002018,0.011
,,,-0.0000002016,0.011
,,,-0.0000002014,0.011
,,,-0.0000002012,0.011
,,,-0.000000201,0.0112
,,,-0.0000002008,0.0112
,,,-0.0000002006,0.0112
,,,-0.0000002004,0.0114
,,,-0.0000002002,0.0114
,,,-0.0000002,0.0114
,,,-0.0000001998,0.0116
,,,-0.0000001996,0.0116
,,,-0.0000001994,0.0116
,,,-0.0000001992,0.0118
,,,-0.000000199,0.0118
,,,-0.0000001988,0.0118
,,,-0.0000001986,0.012
,,,-0.0000001984,0.012
,,,-0.0000001982,0.012
,,,-0.000000198,0.0122
,,,-0.0000001978,0.0122
,,,-0.0000001976,0.0124
,,,-0.0000001974,0.0124
,,,-0.0000001972,0.0124
,,,-0.000000197,0.0124
,,,-0.0000001968,0.0126
,,,-0.0000001966,0.0126
,,,-0.0000001964,0.0126
,,,-0.0000001962,0.0128
,,,-0.000000196,0.0128
,,,-0.0000001958,0.0128
,,,-0.0000001956,0.0128
,,,-0.0000001954,0.0128
,,,-0.0000001952,0.0128
,,,-0.000000195,0.0128
,,,-0.0000001948,0.013
,,,-0.0000001946,0.013
,,,-0.0000001944,0.013
,,,-0.0000001942,0.013
,,,-0.000000194,0.013
,,,-0.0000001938,0.013
,,,-0.0000001936,0.013
,,,-0.0000001934,0.013
,,,-0.0000001932,0.013
,,,-0.000000193,0.013
,,,-0.0000001928,0.013
,,,-0.0000001926,0.013
,,,-0.0000001924,0.013
,,,-0.0000001922,0.013
,,,-0.000000192,0.013
,,,-0.0000001918,0.013
,,,-0.0000001916,0.013
,,,-0.0000001914,0.0128
,,,-0.0000001912,0.0128
,,,-0.000000191,0.0128
,,,-0.0000001908,0.0128
,,,-0.0000001906,0.0128
,,,-0.0000001904,0.0128
,,,-0.0000001902,0.0128
,,,-0.00000019,0.0128
,,,-0.0000001898,0.0128
,,,-0.0000001896,0.0126
,,,-0.0000001894,0.0126
,,,-0.0000001892,0.0126
,,,-0.000000189,0.0126
,,,-0.0000001888,0.0126
,,,-0.0000001886,0.0126
,,,-0.0000001884,0.0126
,,,-0.0000001882,0.0124
,,,-0.000000188,0.0124
,,,-0.0000001878,0.0124
,,,-0.0000001876,0.0124
,,,-0.0000001874,0.0124
,,,-0.0000001872,0.0124
,,,-0.000000187,0.0124
,,,-0.0000001868,0.0122
,,,-0.0000001866,0.0122
,,,-0.0000001864,0.0122
,,,-0.0000001862,0.012
,,,-0.000000186,0.012
,,,-0.0000001858,0.012
,,,-0.0000001856,0.0118
,,,-0.0000001854,0.0118
,,,-0.0000001852,0.0118
,,,-0.000000185,0.0116
,,,-0.0000001848,0.0116
,,,-0.0000001846,0.0114
,,,-0.0000001844,0.0114
,,,-0.0000001842,0.0112
,,,-0.000000184,0.0112
,,,-0.0000001838,0.011
,,,-0.0000001836,0.011
,,,-0.0000001834,0.0108
,,,-0.0000001832,0.0108
,,,-0.000000183,0.0106
,,,-0.0000001828,0.0104
,,,-0.0000001826,0.0104
,,,-0.0000001824,0.0102
,,,-0.0000001822,0.01
,,,-0.000000182,0.01
,,,-0.0000001818,0.0098
,,,-0.0000001816,0.0096
,,,-0.0000001814,0.0096
,,,-0.0000001812,0.0094
,,,-0.000000181,0.0092
,,,-0.0000001808,0.009
,,,-0.0000001806,0.009
,,,-0.0000001804,0.0088
,,,-0.0000001802,0.0086
,,,-0.00000018,0.0084
,,,-0.0000001798,0.0084
,,,-0.0000001796,0.0082
,,,-0.0000001794,0.008
,,,-0.0000001792,0.0078
,,,-0.000000179,0.0078
,,,-0.0000001788,0.0076
,,,-0.0000001786,0.0074
,,,-0.0000001784,0.0072
,,,-0.0000001782,0.0072
,,,-0.000000178,0.007
,,,-0.0000001778,0.0068
,,,-0.0000001776,0.0066
,,,-0.0000001774,0.0064
,,,-0.0000001772,0.0064
,,,-0.000000177,0.0062
,,,-0.0000001768,0.006
,,,-0.0000001766,0.0058
,,,-0.0000001764,0.0056
,,,-0.0000001762,0.0054
,,,-0.000000176,0.0054
,,,-0.0000001758,0.0052
,,,-0.0000001756,0.005
,,,-0.0000001754,0.0048
,,,-0.0000001752,0.0046
,,,-0.000000175,0.0044
,,,-0.0000001748,0.0042
,,,-0.0000001746,0.004
,,,-0.0000001744,0.0038
,,,-0.0000001742,0.0036
,,,-0.000000174,0.0034
,,,-0.0000001738,0.0032
,,,-0.0000001736,0.003
,,,-0.0000001734,0.0028
,,,-0.0000001732,0.0026
,,,-0.000000173,0.0026
,,,-0.0000001728,0.0024
,,,-0.0000001726,0.0022
,,,-0.0000001724,0.0018
,,,-0.0000001722,0.0016
,,,-0.000000172,0.0014
,,,-0.0000001718,0.0012
,,,-0.0000001716,0.001
,,,-0.0000001714,0.0008
,,,-0.0000001712,0.0006
,,,-0.000000171,0.0004
,,,-0.0000001708,0.0002
,,,-0.0000001706,0
,,,-0.0000001704,-0.0002
,,,-0.0000001702,-0.0004
,,,-0.00000017,-0.0006
,,,-0.0000001698,-0.0008
,,,-0.0000001696,-0.001
,,,-0.0000001694,-0.001
,,,-0.0000001692,-0.0012
,,,-0.000000169,-0.0014
,,,-0.0000001688,-0.0016
,,,-0.0000001686,-0.0018
,,,-0.0000001684,-0.002
,,,-0.0000001682,-0.0022
,,,-0.000000168,-0.0022
,,,-0.0000001678,-0.0024
,,,-0.0000001676,-0.0026
,,,-0.0000001674,-0.0028
,,,-0.0000001672,-0.0028
,,,-0.000000167,-0.003
,,,-0.0000001668,-0.0032
,,,-0.0000001666,-0.0032
,,,-0.0000001664,-0.0034
,,,-0.0000001662,-0.0034
,,,-0.000000166,-0.0036
,,,-0.0000001658,-0.0038
,,,-0.0000001656,-0.0038
,,,-0.0000001654,-0.004
,,,-0.0000001652,-0.0042
,,,-0.000000165,-0.0044
,,,-0.0000001648,-0.0044
,,,-0.0000001646,-0.0046
,,,-0.0000001644,-0.0048
,,,-0.0000001642,-0.005
,,,-0.000000164,-0.005
,,,-0.0000001638,-0.0052
,,,-0.0000001636,-0.0054
,,,-0.0000001634,-0.0056
,,,-0.0000001632,-0.0056
,,,-0.000000163,-0.0058
,,,-0.0000001628,-0.006
,,,-0.0000001626,-0.0062
,,,-0.0000001624,-0.0064
,,,-0.0000001622,-0.0064
,,,-0.000000162,-0.0066
,,,-0.0000001618,-0.0068
,,,-0.0000001616,-0.0068
,,,-0.0000001614,-0.007
,,,-0.0000001612,-0.0072
,,,-0.000000161,-0.0072
,,,-0.0000001608,-0.0074
,,,-0.0000001606,-0.0074
,,,-0.0000001604,-0.0076
,,,-0.0000001602,-0.0076
,,,-0.00000016,-0.0078
,,,-0.0000001598,-0.0078
,,,-0.0000001596,-0.008
,,,-0.0000001594,-0.008
,,,-0.0000001592,-0.0082
,,,-0.000000159,-0.0082
,,,-0.0000001588,-0.0084
,,,-0.0000001586,-0.0084
,,,-0.0000001584,-0.0086
,,,-0.0000001582,-0.0086
,,,-0.000000158,-0.0088
,,,-0.0000001578,-0.0088
,,,-0.0000001576,-0.009
,,,-0.0000001574,-0.009
,,,-0.0000001572,-0.009
,,,-0.000000157,-0.0092
,,,-0.0000001568,-0.0092
,,,-0.0000001566,-0.0094
,,,-0.0000001564,-0.0094
,,,-0.0000001562,-0.0094
,,,-0.000000156,-0.0096
,,,-0.0000001558,-0.0096
,,,-0.0000001556,-0.0098
,,,-0.0000001554,-0.0098
,,,-0.0000001552,-0.0098
,,,-0.000000155,-0.01
,,,-0.0000001548,-0.01
,,,-0.0000001546,-0.0102
,,,-0.0000001544,-0.0102
,,,-0.0000001542,-0.0102
,,,-0.000000154,-0.0104
,,,-0.0000001538,-0.0104
,,,-0.0000001536,-0.0104
,,,-0.0000001534,-0.0106
,,,-0.0000001532,-0.0106
,,,-0.000000153,-0.0106
,,,-0.0000001528,-0.0108
,,,-0.0000001526,-0.0108
,,,-0.0000001524,-0.0108
,,,-0.0000001522,-0.011
,,,-0.000000152,-0.011
,,,-0.0000001518,-0.011
,,,-0.0000001516,-0.011
,,,-0.0000001514,-0.0112
,,,-0.0000001512,-0.0112
,,,-0.000000151,-0.0112
,,,-0.0000001508,-0.0112
,,,-0.0000001506,-0.0114
,,,-0.0000001504,-0.0114
,,,-0.0000001502,-0.0114
,,,-0.00000015,-0.0114
,,,-0.0000001498,-0.0114
,,,-0.0000001496,-0.0114
,,,-0.0000001494,-0.0116
,,,-0.0000001492,-0.0116
,,,-0.000000149,-0.0116
,,,-0.0000001488,-0.0116
,,,-0.0000001486,-0.0116
,,,-0.0000001484,-0.0116
,,,-0.0000001482,-0.0116
,,,-0.000000148,-0.0116
,,,-0.0000001478,-0.0116
,,,-0.0000001476,-0.0116
,,,-0.0000001474,-0.0116
,,,-0.0000001472,-0.0116
,,,-0.000000147,-0.0116
,,,-0.0000001468,-0.0116
,,,-0.0000001466,-0.0116
,,,-0.0000001464,-0.0116
,,,-0.0000001462,-0.0116
,,,-0.000000146,-0.0116
,,,-0.0000001458,-0.0116
,,,-0.0000001456,-0.0116
,,,-0.0000001454,-0.0116
,,,-0.0000001452,-0.0116
,,,-0.000000145,-0.0116
,,,-0.0000001448,-0.0116
,,,-0.0000001446,-0.0116
,,,-0.0000001444,-0.0116
,,,-0.0000001442,-0.0116
,,,-0.000000144,-0.0116
,,,-0.0000001438,-0.0116
,,,-0.0000001436,-0.0116
,,,-0.0000001434,-0.0116
,,,-0.0000001432,-0.0118
,,,-0.000000143,-0.0118
,,,-0.0000001428,-0.0118
,,,-0.0000001426,-0.0118
,,,-0.0000001424,-0.0116
,,,-0.0000001422,-0.0116
,,,-0.000000142,-0.0116
,,,-0.0000001418,-0.0116
,,,-0.0000001416,-0.0116
,,,-0.0000001414,-0.0116
,,,-0.0000001412,-0.0116
,,,-0.000000141,-0.0116
,,,-0.0000001408,-0.0116
,,,-0.0000001406,-0.0116
,,,-0.0000001404,-0.0114
,,,-0.0000001402,-0.0114
,,,-0.00000014,-0.0114
,,,-0.0000001398,-0.0114
,,,-0.0000001396,-0.0114
,,,-0.0000001394,-0.0112
,,,-0.0000001392,-0.0112
,,,-0.000000139,-0.0112
,,,-0.0000001388,-0.0112
,,,-0.0000001386,-0.011
,,,-0.0000001384,-0.011
,,,-0.0000001382,-0.011
,,,-0.000000138,-0.011
,,,-0.0000001378,-0.0108
,,,-0.0000001376,-0.0108
,,,-0.0000001374,-0.0108
,,,-0.0000001372,-0.0108
,,,-0.000000137,-0.0106
,,,-0.0000001368,-0.0106
,,,-0.0000001366,-0.0106
,,,-0.0000001364,-0.0106
,,,-0.0000001362,-0.0104
,,,-0.000000136,-0.0104
,,,-0.0000001358,-0.0104
,,,-0.0000001356,-0.0104
,,,-0.0000001354,-0.0102
,,,-0.0000001352,-0.0102
,,,-0.000000135,-0.0102
,,,-0.0000001348,-0.0102
,,,-0.0000001346,-0.01
,,,-0.0000001344,-0.01
,,,-0.0000001342,-0.01
,,,-0.000000134,-0.01
,,,-0.0000001338,-0.0098
,,,-0.0000001336,-0.0098
,,,-0.0000001334,-0.0098
,,,-0.0000001332,-0.0096
,,,-0.000000133,-0.0096
,,,-0.0000001328,-0.0094
,,,-0.0000001326,-0.0094
,,,-0.0000001324,-0.0094
,,,-0.0000001322,-0.0092
,,,-0.000000132,-0.0092
,,,-0.0000001318,-0.009
,,,-0.0000001316,-0.009
,,,-0.0000001314,-0.009
,,,-0.0000001312,-0.0088
,,,-0.000000131,-0.0088
,,,-0.0000001308,-0.0086
,,,-0.0000001306,-0.0086
,,,-0.0000001304,-0.0084
,,,-0.0000001302,-0.0084
,,,-0.00000013,-0.0082
,,,-0.0000001298,-0.0082
,,,-0.0000001296,-0.008
,,,-0.0000001294,-0.008
,,,-0.0000001292,-0.0078
,,,-0.000000129,-0.0078
,,,-0.0000001288,-0.0076
,,,-0.0000001286,-0.0076
,,,-0.0000001284,-0.0076
,,,-0.0000001282,-0.0074
,,,-0.000000128,-0.0074
,,,-0.0000001278,-0.0072
,,,-0.0000001276,-0.0072
,,,-0.0000001274,-0.007
,,,-0.0000001272,-0.007
,,,-0.000000127,-0.0068
,,,-0.0000001268,-0.0068
,,,-0.0000001266,-0.0068
,,,-0.0000001264,-0.0066
,,,-0.0000001262,-0.0066
,,,-0.000000126,-0.0064
,,,-0.0000001258,-0.0064
,,,-0.0000001256,-0.0062
,,,-0.0000001254,-0.006
,,,-0.0000001252,-0.006
,,,-0.000000125,-0.0058
,,,-0.0000001248,-0.0058
,,,-0.0000001246,-0.0056
,,,-0.0000001244,-0.0056
,,,-0.0000001242,-0.0054
,,,-0.000000124,-0.0054
,,,-0.0000001238,-0.0052
,,,-0.0000001236,-0.005
,,,-0.0000001234,-0.005
,,,-0.0000001232,-0.0048
,,,-0.000000123,-0.0046
,,,-0.0000001228,-0.0046
,,,-0.0000001226,-0.0044
,,,-0.0000001224,-0.0042
,,,-0.0000001222,-0.0042
,,,-0.000000122,-0.004
,,,-0.0000001218,-0.0038
,,,-0.0000001216,-0.0038
,,,-0.0000001214,-0.0036
,,,-0.0000001212,-0.0036
,,,-0.000000121,-0.0034
,,,-0.0000001208,-0.0032
,,,-0.0000001206,-0.0032
,,,-0.0000001204,-0.003
,,,-0.0000001202,-0.0028
,,,-0.00000012,-0.0028
,,,-0.0000001198,-0.0026
,,,-0.0000001196,-0.0024
,,,-0.0000001194,-0.0024
,,,-0.0000001192,-0.0022
,,,-0.000000119,-0.002
,,,-0.0000001188,-0.0018
,,,-0.0000001186,-0.0018
,,,-0.0000001184,-0.0016
,,,-0.0000001182,-0.0014
,,,-0.000000118,-0.0014
,,,-0.0000001178,-0.0012
,,,-0.0000001176,-0.001
,,,-0.0000001174,-0.001
,,,-0.0000001172,-0.0008
,,,-0.000000117,-0.0006
,,,-0.0000001168,-0.0006
,,,-0.0000001166,-0.0004
,,,-0.0000001164,-0.0002
,,,-0.0000001162,0
,,,-0.000000116,0
,,,-0.0000001158,0.0002
,,,-0.0000001156,0.0004
,,,-0.0000001154,0.0004
,,,-0.0000001152,0.0006
,,,-0.000000115,0.0008
,,,-0.0000001148,0.0008
,,,-0.0000001146,0.001
,,,-0.0000001144,0.0012
,,,-0.0000001142,0.0012
,,,-0.000000114,0.0014
,,,-0.0000001138,0.0016
,,,-0.0000001136,0.0016
,,,-0.0000001134,0.0018
,,,-0.0000001132,0.0018
,,,-0.000000113,0.002
,,,-0.0000001128,0.0022
,,,-0.0000001126,0.0022
,,,-0.0000001124,0.0024
,,,-0.0000001122,0.0026
,,,-0.000000112,0.0026
,,,-0.0000001118,0.0028
,,,-0.0000001116,0.003
,,,-0.0000001114,0.003
,,,-0.0000001112,0.0032
,,,-0.000000111,0.0034
,,,-0.0000001108,0.0034
,,,-0.0000001106,0.0036
,,,-0.0000001104,0.0036
,,,-0.0000001102,0.0038
,,,-0.00000011,0.004
,,,-0.0000001098,0.004
,,,-0.0000001096,0.0042
,,,-0.0000001094,0.0042
,,,-0.0000001092,0.0044
,,,-0.000000109,0.0044
,,,-0.0000001088,0.0046
,,,-0.0000001086,0.0048
,,,-0.0000001084,0.0048
,,,-0.0000001082,0.005
,,,-0.000000108,0.0052
,,,-0.0000001078,0.0052
,,,-0.0000001076,0.0054
,,,-0.0000001074,0.0056
,,,-0.0000001072,0.0056
,,,-0.000000107,0.0058
,,,-0.0000001068,0.006
,,,-0.0000001066,0.006
,,,-0.0000001064,0.0062
,,,-0.0000001062,0.0062
,,,-0.000000106,0.0064
,,,-0.0000001058,0.0066
,,,-0.0000001056,0.0066
,,,-0.0000001054,0.0068
,,,-0.0000001052,0.007
,,,-0.000000105,0.007
,,,-0.0000001048,0.0072
,,,-0.0000001046,0.0074
,,,-0.0000001044,0.0074
,,,-0.0000001042,0.0076
,,,-0.000000104,0.0076
,,,-0.0000001038,0.0078
,,,-0.0000001036,0.008
,,,-0.0000001034,0.008
,,,-0.0000001032,0.0082
,,,-0.000000103,0.0082
,,,-0.0000001028,0.0084
,,,-0.0000001026,0.0084
,,,-0.0000001024,0.0086
,,,-0.0000001022,0.0086
,,,-0.000000102,0.0088
,,,-0.0000001018,0.0088
,,,-0.0000001016,0.0088
,,,-0.0000001014,0.0088
,,,-0.0000001012,0.009
,,,-0.000000101,0.009
,,,-0.0000001008,0.009
,,,-0.0000001006,0.0092
,,,-0.0000001004,0.0092
,,,-0.0000001002,0.0092
,,,-0.0000001,0.0094
,,,-0.0000000998,0.0094
,,,-0.0000000996,0.0094
,,,-0.0000000994,0.0094
,,,-0.0000000992,0.0096
,,,-0.000000099,0.0096
,,,-0.0000000988,0.0096
,,,-0.0000000986,0.0096
,,,-0.0000000984,0.0098
,,,-0.0000000982,0.0098
,,,-0.000000098,0.0098
,,,-0.0000000978,0.01
,,,-0.0000000976,0.01
,,,-0.0000000974,0.01
,,,-0.0000000972,0.01
,,,-0.000000097,0.0102
,,,-0.0000000968,0.0102
,,,-0.0000000966,0.0102
,,,-0.0000000964,0.0104
,,,-0.0000000962,0.0104
,,,-0.000000096,0.0104
,,,-0.0000000958,0.0106
,,,-0.0000000956,0.0106
,,,-0.0000000954,0.0106
,,,-0.0000000952,0.0108
,,,-0.000000095,0.0108
,,,-0.0000000948,0.0108
,,,-0.0000000946,0.0108
,,,-0.0000000944,0.011
,,,-0.0000000942,0.011
,,,-0.000000094,0.011
,,,-0.0000000938,0.011
,,,-0.0000000936,0.011
,,,-0.0000000934,0.011
,,,-0.0000000932,0.0112
,,,-0.000000093,0.0112
,,,-0.0000000928,0.0112
,,,-0.0000000926,0.0112
,,,-0.0000000924,0.0112
,,,-0.0000000922,0.0112
,,,-0.000000092,0.0112
,,,-0.0000000918,0.011
,,,-0.0000000916,0.011
,,,-0.0000000914,0.011
,,,-0.0000000912,0.011
,,,-0.000000091,0.011
,,,-0.0000000908,0.011
,,,-0.0000000906,0.0108
,,,-0.0000000904,0.0108
,,,-0.0000000902,0.0108
,,,-0.00000009,0.0108
,,,-0.0000000898,0.0106
,,,-0.0000000896,0.0106
,,,-0.0000000894,0.0106
,,,-0.0000000892,0.0106
,,,-0.000000089,0.0104
,,,-0.0000000888,0.0104
,,,-0.0000000886,0.0104
,,,-0.0000000884,0.0104
,,,-0.0000000882,0.0104
,,,-0.000000088,0.0102
,,,-0.0000000878,0.0102
,,,-0.0000000876,0.0102
,,,-0.0000000874,0.0102
,,,-0.0000000872,0.01
,,,-0.000000087,0.01
,,,-0.0000000868,0.01
,,,-0.0000000866,0.01
,,,-0.0000000864,0.01
,,,-0.0000000862,0.0098
,,,-0.000000086,0.0098
,,,-0.0000000858,0.0098
,,,-0.0000000856,0.0098
,,,-0.0000000854,0.0098
,,,-0.0000000852,0.0098
,,,-0.000000085,0.0098
,,,-0.0000000848,0.0096
,,,-0.0000000846,0.0096
,,,-0.0000000844,0.0096
,,,-0.0000000842,0.0096
,,,-0.000000084,0.0096
,,,-0.0000000838,0.0094
,,,-0.0000000836,0.0094
,,,-0.0000000834,0.0094
,,,-0.0000000832,0.0094
,,,-0.000000083,0.0092
,,,-0.0000000828,0.0092
,,,-0.0000000826,0.009
,,,-0.0000000824,0.009
,,,-0.0000000822,0.009
